…
``` r
acs_lisa <- acs_lagged %>% 
  mutate(lisa = local_moran(bach, nb, wts)) %>% 
  as_tibble() %>% 
  unpack(lisa) 

acs_lisa %>% 
  select(last_col(4:0))
#> # A tibble: 203 x 5
#>         ii     e_ii var_ii    z_ii    p_ii
#>      <dbl>    <dbl>  <dbl>   <dbl>   <dbl>
#>  1  0.315  -0.00495  0.138  0.863  0.194  
#>  2 -0.137  -0.00495  0.328 -0.231  0.592  
#>  3  1.22   -0.00495  0.245  2.47   0.00678
#>  4 -0.253  -0.00495  0.161 -0.618  0.732  
#>  5 -0.0363 -0.00495  0.245 -0.0634 0.525  
#>  6  1.23   -0.00495  0.245  2.49   0.00637
#>  7  0.379  -0.00495  0.138  1.03   0.150  
#>  8  0.103  -0.00495  0.195  0.245  0.403  
#>  9  0.0474 -0.00495  0.494  0.0745 0.470  
#> 10  0.195  -0.00495  0.245  0.405  0.343  
#> # … with 193 more rows
```
…
## K-Nearest Neighbor Distances

If we have point data we can also identify the k-nearest neighbors with
`st_knn()`. For an example we can use the `airbnb` dataset that’s
imported with `sfweight`.

``` r
airbnb
#> Simple feature collection with 3799 features and 4 fields
#> Geometry type: POINT
#> Dimension:     XY
#> Bounding box:  xmin: -71.1728 ymin: 42.23576 xmax: -70.99595 ymax: 42.39549
#> Geodetic CRS:  WGS 84
#> # A tibble: 3,799 x 5
#>       id neighborhood room_type       price             geometry
#>  * <dbl> <chr>        <chr>           <dbl>          <POINT [°]>
#>  1  3781 East Boston  Entire home/apt   125 (-71.02991 42.36413)
#>  2  5506 Roxbury      Entire home/apt   145 (-71.09559 42.32981)
#>  3  6695 Roxbury      Entire home/apt   169 (-71.09351 42.32994)
#>  4  8789 Downtown     Entire home/apt    99 (-71.06265 42.35919)
#>  5 10730 Downtown     Entire home/apt   150  (-71.06185 42.3584)
#>  6 10813 Back Bay     Entire home/apt   179 (-71.08904 42.34961)
#>  7 10986 North End    Entire home/apt   125 (-71.05075 42.36352)
#>  8 16384 Beacon Hill  Private room       50  (-71.07132 42.3581)
#>  9 18711 Dorchester   Entire home/apt   154 (-71.06096 42.32212)
#> 10 22195 Back Bay     Private room      115  (-71.0793 42.34558)
#> # … with 3,789 more rows
```
…
## Higher order neighbors

``` r
acs %>% 
  transmute(nb = st_neighbors(geometry),
            nb_2 = st_neighbor_lag(nb, 2),
            nb_cumul_2 = st_neighbor_lag_cumul(nb, 2))
#> Simple feature collection with 203 features and 3 fields
#> Geometry type: MULTIPOLYGON
#> Dimension:     XY
#> Bounding box:  xmin: -71.19125 ymin: 42.22793 xmax: -70.9201 ymax: 42.45012
#> Geodetic CRS:  WGS 84
#> # A tibble: 203 x 4
#>    nb      nb_2     nb_cumul_2                                          geometry
#>  * <list>  <list>   <list>                                    <MULTIPOLYGON [°]>
#>  1 <int [… <int [1… <int [24]> (((-71.06249 42.29221, -71.06234 42.29273, -71.0…
#>  2 <int [… <int [6… <int [9]>  (((-71.05147 42.28931, -71.05136 42.28933, -71.0…
#>  3 <int [… <int [1… <int [17]> (((-71.11093 42.35047, -71.11093 42.3505, -71.11…
#>  4 <int [… <int [1… <int [24]> (((-71.06944 42.346, -71.0691 42.34661, -71.0688…
#>  5 <int [… <int [9… <int [13]> (((-71.13397 42.25431, -71.13353 42.25476, -71.1…
#>  6 <int [… <int [1… <int [16]> (((-71.04707 42.3397, -71.04628 42.34037, -71.04…
#>  7 <int [… <int [1… <int [20]> (((-71.01324 42.38301, -71.01231 42.38371, -71.0…
#>  8 <int [… <int [8… <int [13]> (((-71.00113 42.3871, -71.001 42.38722, -71.0007…
#>  9 <int [… <int [1… <int [16]> (((-71.05079 42.32083, -71.0506 42.32076, -71.05…
#> 10 <int [… <int [1… <int [15]> (((-71.11952 42.28648, -71.11949 42.2878, -71.11…
#> # … with 193 more rows
```
